  {
    "apps" : [
    {
      "name": "ari-skripsi-frontend",
      "script": "npm start",
      "instances": 1,
      "autorestart": true,
      "watch": false,
      "ignore_watch": ["public"],
      "max_memory_restart": "1G",
      "env": {
        "PORT": 3009,
        "NODE_ENV": "development"
      },
      "env_production": {
        "PORT": 3213,
        "NODE_ENV": "production"
      }
    }
  ]
}